{
  "appId": "com.dawut.login",
  "appName": "loginwutjson",
  "bundledWebRuntime": false,
  "npmClient": "npm",
  "webDir": "www",
  "plugins": {
    "SplashScreen": {
      "launchShowDuration": 0
    },
    "GoogleAuth": {
      "scopes": [
        "profile",
        "email"
      ],
      "serverClientId": "860251794304-24umjginvqvt6gdlrflak2sck9husbai.apps.googleusercontent.com",
      "forceCodeForRefreshToken": true
    }
  },
  "cordova": {}
}
